{
  "vpc-provider:account=352725093332:filter.isDefault=false:filter.vpc-id=vpc-011995629ebc7c5e0:region=us-east-1:returnAsymmetricSubnets=true": {
    "vpcId": "vpc-011995629ebc7c5e0",
    "vpcCidrBlock": "10.104.0.0/18",
    "availabilityZones": [],
    "subnetGroups": [
      {
        "name": "Private",
        "type": "Private",
        "subnets": [
          {
            "subnetId": "subnet-096c11c97dee389a3",
            "cidr": "10.104.8.0/23",
            "availabilityZone": "us-east-1a",
            "routeTableId": "rtb-0289635ee7df3dd40"
          },
          {
            "subnetId": "subnet-0ad878c8349abd81f",
            "cidr": "10.104.16.0/27",
            "availabilityZone": "us-east-1a",
            "routeTableId": "rtb-06ea34b1450c73f5e"
          },
          {
            "subnetId": "subnet-0b3ec9961fdcfa35b",
            "cidr": "10.104.4.0/23",
            "availabilityZone": "us-east-1a",
            "routeTableId": "rtb-06ea34b1450c73f5e"
          },
          {
            "subnetId": "subnet-08be854168a605a41",
            "cidr": "10.104.12.0/23",
            "availabilityZone": "us-east-1a",
            "routeTableId": "rtb-000769745b2e7dfb6"
          },
          {
            "subnetId": "subnet-0179227e0e5d11f4e",
            "cidr": "10.104.10.0/23",
            "availabilityZone": "us-east-1b",
            "routeTableId": "rtb-0492bd0113bd637e8"
          },
          {
            "subnetId": "subnet-014ecff5da7db165d",
            "cidr": "10.104.14.0/23",
            "availabilityZone": "us-east-1b",
            "routeTableId": "rtb-0c5c70c33afa51bd9"
          },
          {
            "subnetId": "subnet-07c5c436e4846c83d",
            "cidr": "10.104.6.0/23",
            "availabilityZone": "us-east-1b",
            "routeTableId": "rtb-0bc317b2303b6cbf0"
          },
          {
            "subnetId": "subnet-02bb88f80c6fd656c",
            "cidr": "10.104.16.32/27",
            "availabilityZone": "us-east-1b",
            "routeTableId": "rtb-0bc317b2303b6cbf0"
          }
        ]
      },
      {
        "name": "Public",
        "type": "Public",
        "subnets": [
          {
            "subnetId": "subnet-0ea2b03bad5d0e245",
            "cidr": "10.104.0.0/23",
            "availabilityZone": "us-east-1a",
            "routeTableId": "rtb-052b8e2ba04462901"
          },
          {
            "subnetId": "subnet-0b6bb5961e349d4d1",
            "cidr": "10.104.2.0/23",
            "availabilityZone": "us-east-1b",
            "routeTableId": "rtb-0eac6a2f519f4233d"
          }
        ]
      }
    ]
  },
  "vpc-provider:account=352725093332:filter.vpc-id=vpc-011995629ebc7c5e0:region=us-east-1:returnAsymmetricSubnets=true": {
    "vpcId": "vpc-011995629ebc7c5e0",
    "vpcCidrBlock": "10.104.0.0/18",
    "availabilityZones": [],
    "subnetGroups": [
      {
        "name": "Private",
        "type": "Private",
        "subnets": [
          {
            "subnetId": "subnet-096c11c97dee389a3",
            "cidr": "10.104.8.0/23",
            "availabilityZone": "us-east-1a",
            "routeTableId": "rtb-0289635ee7df3dd40"
          },
          {
            "subnetId": "subnet-0ad878c8349abd81f",
            "cidr": "10.104.16.0/27",
            "availabilityZone": "us-east-1a",
            "routeTableId": "rtb-06ea34b1450c73f5e"
          },
          {
            "subnetId": "subnet-0b3ec9961fdcfa35b",
            "cidr": "10.104.4.0/23",
            "availabilityZone": "us-east-1a",
            "routeTableId": "rtb-06ea34b1450c73f5e"
          },
          {
            "subnetId": "subnet-08be854168a605a41",
            "cidr": "10.104.12.0/23",
            "availabilityZone": "us-east-1a",
            "routeTableId": "rtb-000769745b2e7dfb6"
          },
          {
            "subnetId": "subnet-0179227e0e5d11f4e",
            "cidr": "10.104.10.0/23",
            "availabilityZone": "us-east-1b",
            "routeTableId": "rtb-0492bd0113bd637e8"
          },
          {
            "subnetId": "subnet-014ecff5da7db165d",
            "cidr": "10.104.14.0/23",
            "availabilityZone": "us-east-1b",
            "routeTableId": "rtb-0c5c70c33afa51bd9"
          },
          {
            "subnetId": "subnet-07c5c436e4846c83d",
            "cidr": "10.104.6.0/23",
            "availabilityZone": "us-east-1b",
            "routeTableId": "rtb-0bc317b2303b6cbf0"
          },
          {
            "subnetId": "subnet-02bb88f80c6fd656c",
            "cidr": "10.104.16.32/27",
            "availabilityZone": "us-east-1b",
            "routeTableId": "rtb-0bc317b2303b6cbf0"
          }
        ]
      },
      {
        "name": "Public",
        "type": "Public",
        "subnets": [
          {
            "subnetId": "subnet-0ea2b03bad5d0e245",
            "cidr": "10.104.0.0/23",
            "availabilityZone": "us-east-1a",
            "routeTableId": "rtb-052b8e2ba04462901"
          },
          {
            "subnetId": "subnet-0b6bb5961e349d4d1",
            "cidr": "10.104.2.0/23",
            "availabilityZone": "us-east-1b",
            "routeTableId": "rtb-0eac6a2f519f4233d"
          }
        ]
      }
    ]
  }
}
